<?xml version="1.0"?>
<svg xmlns="http://www.w3.org/2000/svg" xmlns:lc="http://www.librecad.org" xmlns:xlink="http://www.w3.org/1999/xlink" width="68mm" height="8mm" viewBox="0 0 68 8">
    <g lc:layername="0" lc:is_locked="false" lc:is_construction="false" fill="none" stroke="black" stroke-width="1">
        <g lc:blockname="SKETCH">
            <g lc:layername="0" lc:is_locked="false" lc:is_construction="false" fill="none" stroke="black" stroke-width="1">
                <path d="M2,8 L66,8 L66,6.4 L68,6.4 L68,4.8 L66,4.8 L66,3.2 L68,3.2 L68,1.6 L66,1.6 L66,0 L2,0 L0,0 L0,1.6 L2,1.6 L2,3.2 L0,3.2 L0,4.8 L2,4.8 L2,6.4 L0,6.4 L0,8 L2,8 Z "/>
                <path d="M32,3 L38,3 L38,5 L32,5 L32,3 Z "/>
                <circle cx="9.5" cy="3.15" r="1.3"/>
                <circle cx="17" cy="3.1" r="1.3"/>
                <circle cx="24.5" cy="3.05" r="1.3"/>
                <circle cx="45" cy="3.05" r="1.3"/>
                <circle cx="52" cy="3.1" r="1.3"/>
                <circle cx="59" cy="3.15" r="1.3"/>
            </g>
        </g>
    </g>
</svg>
